/*
WARNING: Do NOT edit the input and output ports in this file in a text
editor if you plan to continue editing the block that represents it in
the Block Editor! File corruption is VERY likely to occur.
*/
/*
Copyright (C) 2018  Intel Corporation. All rights reserved.
Your use of Intel Corporation's design tools, logic functions 
and other software and tools, and its AMPP partner logic 
functions, and any output files from any of the foregoing 
(including device programming or simulation files), and any 
associated documentation or information are expressly subject 
to the terms and conditions of the Intel Program License 
Subscription Agreement, the Intel Quartus Prime License Agreement,
the Intel FPGA IP License Agreement, or other applicable license
agreement, including, without limitation, that your use is for
the sole purpose of programming logic devices manufactured by
Intel and sold by Intel or its authorized distributors.  Please
refer to the applicable agreement for further details.
*/
(header "graphic" (version "1.4"))
(pin
	(input)
	(rect 1216 344 1384 360)
	(text "INPUT" (rect 125 0 153 10)(font "Arial" (font_size 6)))
	(text "clock_20mhz" (rect 5 0 67 17)(font "Intel Clear" ))
	(pt 168 8)
	(drawing
		(line (pt 84 12)(pt 109 12))
		(line (pt 84 4)(pt 109 4))
		(line (pt 113 8)(pt 168 8))
		(line (pt 84 12)(pt 84 4))
		(line (pt 109 4)(pt 113 8))
		(line (pt 109 12)(pt 113 8))
	)
	(text "VCC" (rect 128 7 148 17)(font "Arial" (font_size 6)))
	(annotation_block (location)(rect 1128 392 1184 416))
)
(pin
	(input)
	(rect 1216 360 1384 376)
	(text "INPUT" (rect 125 0 153 10)(font "Arial" (font_size 6)))
	(text "reset_n" (rect 5 0 40 17)(font "Intel Clear" ))
	(pt 168 8)
	(drawing
		(line (pt 84 12)(pt 109 12))
		(line (pt 84 4)(pt 109 4))
		(line (pt 113 8)(pt 168 8))
		(line (pt 84 12)(pt 84 4))
		(line (pt 109 4)(pt 113 8))
		(line (pt 109 12)(pt 113 8))
	)
	(text "VCC" (rect 128 7 148 17)(font "Arial" (font_size 6)))
)
(pin
	(input)
	(rect 488 360 672 376)
	(text "INPUT" (rect 141 0 169 10)(font "Arial" (font_size 6)))
	(text "lw_fpga_spi0_clk" (rect 5 0 88 17)(font "Intel Clear" ))
	(pt 184 8)
	(drawing
		(line (pt 100 12)(pt 125 12))
		(line (pt 100 4)(pt 125 4))
		(line (pt 129 8)(pt 184 8))
		(line (pt 100 12)(pt 100 4))
		(line (pt 125 4)(pt 129 8))
		(line (pt 125 12)(pt 129 8))
	)
	(text "VCC" (rect 144 7 164 17)(font "Arial" (font_size 6)))
	(annotation_block (location)(rect 1192 672 1248 696))
)
(pin
	(input)
	(rect 480 376 672 392)
	(text "INPUT" (rect 149 0 177 10)(font "Arial" (font_size 6)))
	(text "lw_fpga_spi0_cs0" (rect 5 0 89 17)(font "Intel Clear" ))
	(pt 192 8)
	(drawing
		(line (pt 108 12)(pt 133 12))
		(line (pt 108 4)(pt 133 4))
		(line (pt 137 8)(pt 192 8))
		(line (pt 108 12)(pt 108 4))
		(line (pt 133 4)(pt 137 8))
		(line (pt 133 12)(pt 137 8))
	)
	(text "VCC" (rect 152 7 172 17)(font "Arial" (font_size 6)))
	(annotation_block (location)(rect 1192 688 1256 712))
)
(pin
	(input)
	(rect 488 392 672 408)
	(text "INPUT" (rect 141 0 169 10)(font "Arial" (font_size 6)))
	(text "lw_fpga_spi0_sdi" (rect 5 0 87 17)(font "Intel Clear" ))
	(pt 184 8)
	(drawing
		(line (pt 100 12)(pt 125 12))
		(line (pt 100 4)(pt 125 4))
		(line (pt 129 8)(pt 184 8))
		(line (pt 100 12)(pt 100 4))
		(line (pt 125 4)(pt 129 8))
		(line (pt 125 12)(pt 129 8))
	)
	(text "VCC" (rect 144 7 164 17)(font "Arial" (font_size 6)))
	(annotation_block (location)(rect 1200 728 1264 752))
)
(pin
	(input)
	(rect 512 816 696 832)
	(text "INPUT" (rect 141 0 169 10)(font "Arial" (font_size 6)))
	(text "digital_1_filtered" (rect 5 0 86 17)(font "Intel Clear" ))
	(pt 184 8)
	(drawing
		(line (pt 100 12)(pt 125 12))
		(line (pt 100 4)(pt 125 4))
		(line (pt 129 8)(pt 184 8))
		(line (pt 100 12)(pt 100 4))
		(line (pt 125 4)(pt 129 8))
		(line (pt 125 12)(pt 129 8))
	)
	(text "VCC" (rect 144 7 164 17)(font "Arial" (font_size 6)))
	(annotation_block (location)(rect 1448 1232 1504 1256))
)
(pin
	(input)
	(rect 512 720 696 736)
	(text "INPUT" (rect 141 0 169 10)(font "Arial" (font_size 6)))
	(text "digital_7_filtered" (rect 5 0 86 17)(font "Intel Clear" ))
	(pt 184 8)
	(drawing
		(line (pt 100 12)(pt 125 12))
		(line (pt 100 4)(pt 125 4))
		(line (pt 129 8)(pt 184 8))
		(line (pt 100 12)(pt 100 4))
		(line (pt 125 4)(pt 129 8))
		(line (pt 125 12)(pt 129 8))
	)
	(text "VCC" (rect 144 7 164 17)(font "Arial" (font_size 6)))
	(annotation_block (location)(rect 1416 984 1472 1008))
)
(pin
	(input)
	(rect 512 736 696 752)
	(text "INPUT" (rect 141 0 169 10)(font "Arial" (font_size 6)))
	(text "digital_6_filtered" (rect 5 0 86 17)(font "Intel Clear" ))
	(pt 184 8)
	(drawing
		(line (pt 100 12)(pt 125 12))
		(line (pt 100 4)(pt 125 4))
		(line (pt 129 8)(pt 184 8))
		(line (pt 100 12)(pt 100 4))
		(line (pt 125 4)(pt 129 8))
		(line (pt 125 12)(pt 129 8))
	)
	(text "VCC" (rect 144 7 164 17)(font "Arial" (font_size 6)))
	(annotation_block (location)(rect 1384 1024 1440 1048))
)
(pin
	(input)
	(rect 512 752 696 768)
	(text "INPUT" (rect 141 0 169 10)(font "Arial" (font_size 6)))
	(text "digital_5_filtered" (rect 5 0 86 17)(font "Intel Clear" ))
	(pt 184 8)
	(drawing
		(line (pt 100 12)(pt 125 12))
		(line (pt 100 4)(pt 125 4))
		(line (pt 129 8)(pt 184 8))
		(line (pt 100 12)(pt 100 4))
		(line (pt 125 4)(pt 129 8))
		(line (pt 125 12)(pt 129 8))
	)
	(text "VCC" (rect 144 7 164 17)(font "Arial" (font_size 6)))
	(annotation_block (location)(rect 1416 1072 1472 1096))
)
(pin
	(input)
	(rect 512 768 696 784)
	(text "INPUT" (rect 141 0 169 10)(font "Arial" (font_size 6)))
	(text "digital_4_filtered" (rect 5 0 86 17)(font "Intel Clear" ))
	(pt 184 8)
	(drawing
		(line (pt 100 12)(pt 125 12))
		(line (pt 100 4)(pt 125 4))
		(line (pt 129 8)(pt 184 8))
		(line (pt 100 12)(pt 100 4))
		(line (pt 125 4)(pt 129 8))
		(line (pt 125 12)(pt 129 8))
	)
	(text "VCC" (rect 144 7 164 17)(font "Arial" (font_size 6)))
	(annotation_block (location)(rect 1416 1104 1472 1128))
)
(pin
	(input)
	(rect 512 784 696 800)
	(text "INPUT" (rect 141 0 169 10)(font "Arial" (font_size 6)))
	(text "digital_3_filtered" (rect 5 0 86 17)(font "Intel Clear" ))
	(pt 184 8)
	(drawing
		(line (pt 100 12)(pt 125 12))
		(line (pt 100 4)(pt 125 4))
		(line (pt 129 8)(pt 184 8))
		(line (pt 100 12)(pt 100 4))
		(line (pt 125 4)(pt 129 8))
		(line (pt 125 12)(pt 129 8))
	)
	(text "VCC" (rect 144 7 164 17)(font "Arial" (font_size 6)))
	(annotation_block (location)(rect 1416 1144 1472 1168))
)
(pin
	(input)
	(rect 512 800 696 816)
	(text "INPUT" (rect 141 0 169 10)(font "Arial" (font_size 6)))
	(text "digital_2_filtered" (rect 5 0 86 17)(font "Intel Clear" ))
	(pt 184 8)
	(drawing
		(line (pt 100 12)(pt 125 12))
		(line (pt 100 4)(pt 125 4))
		(line (pt 129 8)(pt 184 8))
		(line (pt 100 12)(pt 100 4))
		(line (pt 125 4)(pt 129 8))
		(line (pt 125 12)(pt 129 8))
	)
	(text "VCC" (rect 144 7 164 17)(font "Arial" (font_size 6)))
	(annotation_block (location)(rect 1416 1192 1472 1216))
)
(pin
	(input)
	(rect 1144 536 1336 552)
	(text "INPUT" (rect 149 0 177 10)(font "Arial" (font_size 6)))
	(text "adc_iso1_an0[15..0]" (rect 5 0 99 17)(font "Intel Clear" ))
	(pt 192 8)
	(drawing
		(line (pt 108 12)(pt 133 12))
		(line (pt 108 4)(pt 133 4))
		(line (pt 137 8)(pt 192 8))
		(line (pt 108 12)(pt 108 4))
		(line (pt 133 4)(pt 137 8))
		(line (pt 133 12)(pt 137 8))
	)
	(text "VCC" (rect 152 7 172 17)(font "Arial" (font_size 6)))
	(annotation_block (location)(rect 1960 1016 2016 1040))
)
(pin
	(input)
	(rect 1144 552 1336 568)
	(text "INPUT" (rect 149 0 177 10)(font "Arial" (font_size 6)))
	(text "adc_iso2_an0[15..0]" (rect 5 0 99 17)(font "Intel Clear" ))
	(pt 192 8)
	(drawing
		(line (pt 108 12)(pt 133 12))
		(line (pt 108 4)(pt 133 4))
		(line (pt 137 8)(pt 192 8))
		(line (pt 108 12)(pt 108 4))
		(line (pt 133 4)(pt 137 8))
		(line (pt 133 12)(pt 137 8))
	)
	(text "VCC" (rect 152 7 172 17)(font "Arial" (font_size 6)))
	(annotation_block (location)(rect 1968 1080 2024 1104))
)
(pin
	(input)
	(rect 1144 568 1336 584)
	(text "INPUT" (rect 149 0 177 10)(font "Arial" (font_size 6)))
	(text "adc_iso3_an0[15..0]" (rect 5 0 99 17)(font "Intel Clear" ))
	(pt 192 8)
	(drawing
		(line (pt 108 12)(pt 133 12))
		(line (pt 108 4)(pt 133 4))
		(line (pt 137 8)(pt 192 8))
		(line (pt 108 12)(pt 108 4))
		(line (pt 133 4)(pt 137 8))
		(line (pt 133 12)(pt 137 8))
	)
	(text "VCC" (rect 152 7 172 17)(font "Arial" (font_size 6)))
	(annotation_block (location)(rect 1984 1104 2040 1128))
)
(pin
	(input)
	(rect 1144 584 1336 600)
	(text "INPUT" (rect 149 0 177 10)(font "Arial" (font_size 6)))
	(text "adc_iso4_an0[15..0]" (rect 5 0 99 17)(font "Intel Clear" ))
	(pt 192 8)
	(drawing
		(line (pt 108 12)(pt 133 12))
		(line (pt 108 4)(pt 133 4))
		(line (pt 137 8)(pt 192 8))
		(line (pt 108 12)(pt 108 4))
		(line (pt 133 4)(pt 137 8))
		(line (pt 133 12)(pt 137 8))
	)
	(text "VCC" (rect 152 7 172 17)(font "Arial" (font_size 6)))
	(annotation_block (location)(rect 1984 1104 2040 1128))
)
(pin
	(output)
	(rect 488 312 680 328)
	(text "OUTPUT" (rect 153 0 191 10)(font "Arial" (font_size 6)))
	(text "lw_fpga_spi0_sdo" (rect 5 0 91 17)(font "Intel Clear" ))
	(pt 192 8)
	(drawing
		(line (pt 192 8)(pt 140 8))
		(line (pt 140 4)(pt 114 4))
		(line (pt 140 12)(pt 114 12))
		(line (pt 140 12)(pt 140 4))
		(line (pt 114 4)(pt 110 8))
		(line (pt 110 8)(pt 114 12))
		(line (pt 114 12)(pt 110 8))
	)
	(flipy)
	(annotation_block (location)(rect 1208 608 1264 632))
)
(symbol
	(rect 712 584 744 616)
	(text "GND" (rect 8 16 29 26)(font "Arial" (font_size 6)))
	(text "inst13" (rect 3 21 31 38)(font "Intel Clear" )(invisible))
	(port
		(pt 16 0)
		(output)
		(text "1" (rect 18 0 23 12)(font "Courier New" (bold))(invisible))
		(text "1" (rect 18 0 23 12)(font "Courier New" (bold))(invisible))
		(line (pt 16 8)(pt 16 0))
	)
	(drawing
		(line (pt 8 8)(pt 16 16))
		(line (pt 16 16)(pt 24 8))
		(line (pt 8 8)(pt 24 8))
	)
)
(symbol
	(rect 1472 320 1752 976)
	(text "register_mux" (rect 5 0 68 12)(font "Arial" ))
	(text "inst124" (rect 8 640 43 652)(font "Arial" ))
	(port
		(pt 0 32)
		(input)
		(text "clock20m_i" (rect 0 0 55 12)(font "Arial" ))
		(text "clock20m_i" (rect 21 27 76 39)(font "Arial" ))
		(line (pt 0 32)(pt 16 32))
	)
	(port
		(pt 0 48)
		(input)
		(text "reset_ni" (rect 0 0 38 12)(font "Arial" ))
		(text "reset_ni" (rect 21 43 59 55)(font "Arial" ))
		(line (pt 0 48)(pt 16 48))
	)
	(port
		(pt 0 64)
		(input)
		(text "mux_register_i[5..0]" (rect 0 0 97 12)(font "Arial" ))
		(text "mux_register_i[5..0]" (rect 21 59 118 71)(font "Arial" ))
		(line (pt 0 64)(pt 16 64)(line_width 3))
	)
	(port
		(pt 0 80)
		(input)
		(text "mux_full_address_i[15..0]" (rect 0 0 127 12)(font "Arial" ))
		(text "mux_full_address_i[15..0]" (rect 21 75 148 87)(font "Arial" ))
		(line (pt 0 80)(pt 16 80)(line_width 3))
	)
	(port
		(pt 0 96)
		(input)
		(text "mux_data_i[15..0]" (rect 0 0 88 12)(font "Arial" ))
		(text "mux_data_i[15..0]" (rect 21 91 109 103)(font "Arial" ))
		(line (pt 0 96)(pt 16 96)(line_width 3))
	)
	(port
		(pt 0 112)
		(input)
		(text "mux_full_address_done_i" (rect 0 0 125 12)(font "Arial" ))
		(text "mux_full_address_done_i" (rect 21 107 146 119)(font "Arial" ))
		(line (pt 0 112)(pt 16 112))
	)
	(port
		(pt 0 128)
		(input)
		(text "mux_write_i" (rect 0 0 57 12)(font "Arial" ))
		(text "mux_write_i" (rect 21 123 78 135)(font "Arial" ))
		(line (pt 0 128)(pt 16 128))
	)
	(port
		(pt 0 144)
		(input)
		(text "mux_read_i" (rect 0 0 56 12)(font "Arial" ))
		(text "mux_read_i" (rect 21 139 77 151)(font "Arial" ))
		(line (pt 0 144)(pt 16 144))
	)
	(port
		(pt 0 160)
		(input)
		(text "mux_crc_i[15..0]" (rect 0 0 82 12)(font "Arial" ))
		(text "mux_crc_i[15..0]" (rect 21 155 103 167)(font "Arial" ))
		(line (pt 0 160)(pt 16 160)(line_width 3))
	)
	(port
		(pt 0 176)
		(input)
		(text "crc_result_i[15..0]" (rect 0 0 88 12)(font "Arial" ))
		(text "crc_result_i[15..0]" (rect 21 171 109 183)(font "Arial" ))
		(line (pt 0 176)(pt 16 176)(line_width 3))
	)
	(port
		(pt 0 192)
		(input)
		(text "reg_00_i[15..0]" (rect 0 0 73 12)(font "Arial" ))
		(text "reg_00_i[15..0]" (rect 21 187 94 199)(font "Arial" ))
		(line (pt 0 192)(pt 16 192)(line_width 3))
	)
	(port
		(pt 0 208)
		(input)
		(text "reg_01_i[15..0]" (rect 0 0 73 12)(font "Arial" ))
		(text "reg_01_i[15..0]" (rect 21 203 94 215)(font "Arial" ))
		(line (pt 0 208)(pt 16 208)(line_width 3))
	)
	(port
		(pt 0 224)
		(input)
		(text "reg_02_i[15..0]" (rect 0 0 73 12)(font "Arial" ))
		(text "reg_02_i[15..0]" (rect 21 219 94 231)(font "Arial" ))
		(line (pt 0 224)(pt 16 224)(line_width 3))
	)
	(port
		(pt 0 240)
		(input)
		(text "reg_03_i[15..0]" (rect 0 0 73 12)(font "Arial" ))
		(text "reg_03_i[15..0]" (rect 21 235 94 247)(font "Arial" ))
		(line (pt 0 240)(pt 16 240)(line_width 3))
	)
	(port
		(pt 0 256)
		(input)
		(text "reg_04_i[15..0]" (rect 0 0 73 12)(font "Arial" ))
		(text "reg_04_i[15..0]" (rect 21 251 94 263)(font "Arial" ))
		(line (pt 0 256)(pt 16 256)(line_width 3))
	)
	(port
		(pt 0 272)
		(input)
		(text "reg_05_i[15..0]" (rect 0 0 73 12)(font "Arial" ))
		(text "reg_05_i[15..0]" (rect 21 267 94 279)(font "Arial" ))
		(line (pt 0 272)(pt 16 272)(line_width 3))
	)
	(port
		(pt 0 288)
		(input)
		(text "reg_06_i[15..0]" (rect 0 0 73 12)(font "Arial" ))
		(text "reg_06_i[15..0]" (rect 21 283 94 295)(font "Arial" ))
		(line (pt 0 288)(pt 16 288)(line_width 3))
	)
	(port
		(pt 0 304)
		(input)
		(text "reg_07_i[15..0]" (rect 0 0 73 12)(font "Arial" ))
		(text "reg_07_i[15..0]" (rect 21 299 94 311)(font "Arial" ))
		(line (pt 0 304)(pt 16 304)(line_width 3))
	)
	(port
		(pt 0 320)
		(input)
		(text "reg_08_i[15..0]" (rect 0 0 73 12)(font "Arial" ))
		(text "reg_08_i[15..0]" (rect 21 315 94 327)(font "Arial" ))
		(line (pt 0 320)(pt 16 320)(line_width 3))
	)
	(port
		(pt 0 336)
		(input)
		(text "reg_09_i[15..0]" (rect 0 0 73 12)(font "Arial" ))
		(text "reg_09_i[15..0]" (rect 21 331 94 343)(font "Arial" ))
		(line (pt 0 336)(pt 16 336)(line_width 3))
	)
	(port
		(pt 0 352)
		(input)
		(text "reg_10_i[15..0]" (rect 0 0 73 12)(font "Arial" ))
		(text "reg_10_i[15..0]" (rect 21 347 94 359)(font "Arial" ))
		(line (pt 0 352)(pt 16 352)(line_width 3))
	)
	(port
		(pt 0 368)
		(input)
		(text "reg_11_i[15..0]" (rect 0 0 73 12)(font "Arial" ))
		(text "reg_11_i[15..0]" (rect 21 363 94 375)(font "Arial" ))
		(line (pt 0 368)(pt 16 368)(line_width 3))
	)
	(port
		(pt 0 384)
		(input)
		(text "reg_12_i[15..0]" (rect 0 0 73 12)(font "Arial" ))
		(text "reg_12_i[15..0]" (rect 21 379 94 391)(font "Arial" ))
		(line (pt 0 384)(pt 16 384)(line_width 3))
	)
	(port
		(pt 0 400)
		(input)
		(text "reg_13_i[15..0]" (rect 0 0 73 12)(font "Arial" ))
		(text "reg_13_i[15..0]" (rect 21 395 94 407)(font "Arial" ))
		(line (pt 0 400)(pt 16 400)(line_width 3))
	)
	(port
		(pt 0 416)
		(input)
		(text "reg_14_i[15..0]" (rect 0 0 73 12)(font "Arial" ))
		(text "reg_14_i[15..0]" (rect 21 411 94 423)(font "Arial" ))
		(line (pt 0 416)(pt 16 416)(line_width 3))
	)
	(port
		(pt 0 432)
		(input)
		(text "reg_15_i[15..0]" (rect 0 0 73 12)(font "Arial" ))
		(text "reg_15_i[15..0]" (rect 21 427 94 439)(font "Arial" ))
		(line (pt 0 432)(pt 16 432)(line_width 3))
	)
	(port
		(pt 0 448)
		(input)
		(text "reg_16_i[15..0]" (rect 0 0 73 12)(font "Arial" ))
		(text "reg_16_i[15..0]" (rect 21 443 94 455)(font "Arial" ))
		(line (pt 0 448)(pt 16 448)(line_width 3))
	)
	(port
		(pt 0 464)
		(input)
		(text "reg_17_i[15..0]" (rect 0 0 73 12)(font "Arial" ))
		(text "reg_17_i[15..0]" (rect 21 459 94 471)(font "Arial" ))
		(line (pt 0 464)(pt 16 464)(line_width 3))
	)
	(port
		(pt 0 480)
		(input)
		(text "reg_18_i[15..0]" (rect 0 0 73 12)(font "Arial" ))
		(text "reg_18_i[15..0]" (rect 21 475 94 487)(font "Arial" ))
		(line (pt 0 480)(pt 16 480)(line_width 3))
	)
	(port
		(pt 0 496)
		(input)
		(text "reg_19_i[15..0]" (rect 0 0 73 12)(font "Arial" ))
		(text "reg_19_i[15..0]" (rect 21 491 94 503)(font "Arial" ))
		(line (pt 0 496)(pt 16 496)(line_width 3))
	)
	(port
		(pt 0 512)
		(input)
		(text "reg_20_i[15..0]" (rect 0 0 73 12)(font "Arial" ))
		(text "reg_20_i[15..0]" (rect 21 507 94 519)(font "Arial" ))
		(line (pt 0 512)(pt 16 512)(line_width 3))
	)
	(port
		(pt 0 528)
		(input)
		(text "reg_21_i[15..0]" (rect 0 0 73 12)(font "Arial" ))
		(text "reg_21_i[15..0]" (rect 21 523 94 535)(font "Arial" ))
		(line (pt 0 528)(pt 16 528)(line_width 3))
	)
	(port
		(pt 0 544)
		(input)
		(text "reg_22_i[15..0]" (rect 0 0 73 12)(font "Arial" ))
		(text "reg_22_i[15..0]" (rect 21 539 94 551)(font "Arial" ))
		(line (pt 0 544)(pt 16 544)(line_width 3))
	)
	(port
		(pt 0 560)
		(input)
		(text "reg_23_i[15..0]" (rect 0 0 73 12)(font "Arial" ))
		(text "reg_23_i[15..0]" (rect 21 555 94 567)(font "Arial" ))
		(line (pt 0 560)(pt 16 560)(line_width 3))
	)
	(port
		(pt 0 576)
		(input)
		(text "reg_24_i[15..0]" (rect 0 0 73 12)(font "Arial" ))
		(text "reg_24_i[15..0]" (rect 21 571 94 583)(font "Arial" ))
		(line (pt 0 576)(pt 16 576)(line_width 3))
	)
	(port
		(pt 0 592)
		(input)
		(text "reg_25_i[15..0]" (rect 0 0 73 12)(font "Arial" ))
		(text "reg_25_i[15..0]" (rect 21 587 94 599)(font "Arial" ))
		(line (pt 0 592)(pt 16 592)(line_width 3))
	)
	(port
		(pt 0 608)
		(input)
		(text "reg_26_i[15..0]" (rect 0 0 73 12)(font "Arial" ))
		(text "reg_26_i[15..0]" (rect 21 603 94 615)(font "Arial" ))
		(line (pt 0 608)(pt 16 608)(line_width 3))
	)
	(port
		(pt 0 624)
		(input)
		(text "reg_27_i[15..0]" (rect 0 0 73 12)(font "Arial" ))
		(text "reg_27_i[15..0]" (rect 21 619 94 631)(font "Arial" ))
		(line (pt 0 624)(pt 16 624)(line_width 3))
	)
	(port
		(pt 280 32)
		(output)
		(text "mux_data_o[15..0]" (rect 0 0 92 12)(font "Arial" ))
		(text "mux_data_o[15..0]" (rect 182 27 274 39)(font "Arial" ))
		(line (pt 280 32)(pt 264 32)(line_width 3))
	)
	(port
		(pt 280 48)
		(output)
		(text "mux_crc_o[15..0]" (rect 0 0 86 12)(font "Arial" ))
		(text "mux_crc_o[15..0]" (rect 187 43 273 55)(font "Arial" ))
		(line (pt 280 48)(pt 264 48)(line_width 3))
	)
	(port
		(pt 280 64)
		(output)
		(text "crc_data_o[15..0]" (rect 0 0 86 12)(font "Arial" ))
		(text "crc_data_o[15..0]" (rect 187 59 273 71)(font "Arial" ))
		(line (pt 280 64)(pt 264 64)(line_width 3))
	)
	(port
		(pt 280 80)
		(output)
		(text "crc_clear_o" (rect 0 0 56 12)(font "Arial" ))
		(text "crc_clear_o" (rect 212 75 268 87)(font "Arial" ))
		(line (pt 280 80)(pt 264 80))
	)
	(port
		(pt 280 96)
		(output)
		(text "crc_write_o" (rect 0 0 55 12)(font "Arial" ))
		(text "crc_write_o" (rect 213 91 268 103)(font "Arial" ))
		(line (pt 280 96)(pt 264 96))
	)
	(port
		(pt 280 112)
		(output)
		(text "reg_00_o[15..0]" (rect 0 0 76 12)(font "Arial" ))
		(text "reg_00_o[15..0]" (rect 195 107 271 119)(font "Arial" ))
		(line (pt 280 112)(pt 264 112)(line_width 3))
	)
	(port
		(pt 280 128)
		(output)
		(text "reg_01_o[15..0]" (rect 0 0 76 12)(font "Arial" ))
		(text "reg_01_o[15..0]" (rect 195 123 271 135)(font "Arial" ))
		(line (pt 280 128)(pt 264 128)(line_width 3))
	)
	(port
		(pt 280 144)
		(output)
		(text "reg_02_o[15..0]" (rect 0 0 76 12)(font "Arial" ))
		(text "reg_02_o[15..0]" (rect 195 139 271 151)(font "Arial" ))
		(line (pt 280 144)(pt 264 144)(line_width 3))
	)
	(port
		(pt 280 160)
		(output)
		(text "reg_03_o[15..0]" (rect 0 0 76 12)(font "Arial" ))
		(text "reg_03_o[15..0]" (rect 195 155 271 167)(font "Arial" ))
		(line (pt 280 160)(pt 264 160)(line_width 3))
	)
	(port
		(pt 280 176)
		(output)
		(text "reg_04_o[15..0]" (rect 0 0 76 12)(font "Arial" ))
		(text "reg_04_o[15..0]" (rect 195 171 271 183)(font "Arial" ))
		(line (pt 280 176)(pt 264 176)(line_width 3))
	)
	(port
		(pt 280 192)
		(output)
		(text "reg_05_o[15..0]" (rect 0 0 76 12)(font "Arial" ))
		(text "reg_05_o[15..0]" (rect 195 187 271 199)(font "Arial" ))
		(line (pt 280 192)(pt 264 192)(line_width 3))
	)
	(port
		(pt 280 208)
		(output)
		(text "reg_06_o[15..0]" (rect 0 0 76 12)(font "Arial" ))
		(text "reg_06_o[15..0]" (rect 195 203 271 215)(font "Arial" ))
		(line (pt 280 208)(pt 264 208)(line_width 3))
	)
	(port
		(pt 280 224)
		(output)
		(text "reg_07_o[15..0]" (rect 0 0 76 12)(font "Arial" ))
		(text "reg_07_o[15..0]" (rect 195 219 271 231)(font "Arial" ))
		(line (pt 280 224)(pt 264 224)(line_width 3))
	)
	(port
		(pt 280 240)
		(output)
		(text "reg_08_o[15..0]" (rect 0 0 76 12)(font "Arial" ))
		(text "reg_08_o[15..0]" (rect 195 235 271 247)(font "Arial" ))
		(line (pt 280 240)(pt 264 240)(line_width 3))
	)
	(port
		(pt 280 256)
		(output)
		(text "reg_09_o[15..0]" (rect 0 0 76 12)(font "Arial" ))
		(text "reg_09_o[15..0]" (rect 195 251 271 263)(font "Arial" ))
		(line (pt 280 256)(pt 264 256)(line_width 3))
	)
	(port
		(pt 280 272)
		(output)
		(text "reg_10_o[15..0]" (rect 0 0 76 12)(font "Arial" ))
		(text "reg_10_o[15..0]" (rect 195 267 271 279)(font "Arial" ))
		(line (pt 280 272)(pt 264 272)(line_width 3))
	)
	(port
		(pt 280 288)
		(output)
		(text "reg_11_o[15..0]" (rect 0 0 76 12)(font "Arial" ))
		(text "reg_11_o[15..0]" (rect 195 283 271 295)(font "Arial" ))
		(line (pt 280 288)(pt 264 288)(line_width 3))
	)
	(port
		(pt 280 304)
		(output)
		(text "reg_12_o[15..0]" (rect 0 0 76 12)(font "Arial" ))
		(text "reg_12_o[15..0]" (rect 195 299 271 311)(font "Arial" ))
		(line (pt 280 304)(pt 264 304)(line_width 3))
	)
	(port
		(pt 280 320)
		(output)
		(text "reg_13_o[15..0]" (rect 0 0 76 12)(font "Arial" ))
		(text "reg_13_o[15..0]" (rect 195 315 271 327)(font "Arial" ))
		(line (pt 280 320)(pt 264 320)(line_width 3))
	)
	(port
		(pt 280 336)
		(output)
		(text "reg_14_o[15..0]" (rect 0 0 76 12)(font "Arial" ))
		(text "reg_14_o[15..0]" (rect 195 331 271 343)(font "Arial" ))
		(line (pt 280 336)(pt 264 336)(line_width 3))
	)
	(port
		(pt 280 352)
		(output)
		(text "reg_15_o[15..0]" (rect 0 0 76 12)(font "Arial" ))
		(text "reg_15_o[15..0]" (rect 195 347 271 359)(font "Arial" ))
		(line (pt 280 352)(pt 264 352)(line_width 3))
	)
	(port
		(pt 280 368)
		(output)
		(text "reg_16_o[15..0]" (rect 0 0 76 12)(font "Arial" ))
		(text "reg_16_o[15..0]" (rect 195 363 271 375)(font "Arial" ))
		(line (pt 280 368)(pt 264 368)(line_width 3))
	)
	(port
		(pt 280 384)
		(output)
		(text "reg_17_o[15..0]" (rect 0 0 76 12)(font "Arial" ))
		(text "reg_17_o[15..0]" (rect 195 379 271 391)(font "Arial" ))
		(line (pt 280 384)(pt 264 384)(line_width 3))
	)
	(port
		(pt 280 400)
		(output)
		(text "reg_18_o[15..0]" (rect 0 0 76 12)(font "Arial" ))
		(text "reg_18_o[15..0]" (rect 195 395 271 407)(font "Arial" ))
		(line (pt 280 400)(pt 264 400)(line_width 3))
	)
	(port
		(pt 280 416)
		(output)
		(text "reg_19_o[15..0]" (rect 0 0 76 12)(font "Arial" ))
		(text "reg_19_o[15..0]" (rect 195 411 271 423)(font "Arial" ))
		(line (pt 280 416)(pt 264 416)(line_width 3))
	)
	(port
		(pt 280 432)
		(output)
		(text "reg_20_o[15..0]" (rect 0 0 76 12)(font "Arial" ))
		(text "reg_20_o[15..0]" (rect 195 427 271 439)(font "Arial" ))
		(line (pt 280 432)(pt 264 432)(line_width 3))
	)
	(port
		(pt 280 448)
		(output)
		(text "reg_21_o[15..0]" (rect 0 0 76 12)(font "Arial" ))
		(text "reg_21_o[15..0]" (rect 195 443 271 455)(font "Arial" ))
		(line (pt 280 448)(pt 264 448)(line_width 3))
	)
	(port
		(pt 280 464)
		(output)
		(text "reg_22_o[15..0]" (rect 0 0 76 12)(font "Arial" ))
		(text "reg_22_o[15..0]" (rect 195 459 271 471)(font "Arial" ))
		(line (pt 280 464)(pt 264 464)(line_width 3))
	)
	(port
		(pt 280 480)
		(output)
		(text "reg_23_o[15..0]" (rect 0 0 76 12)(font "Arial" ))
		(text "reg_23_o[15..0]" (rect 195 475 271 487)(font "Arial" ))
		(line (pt 280 480)(pt 264 480)(line_width 3))
	)
	(port
		(pt 280 496)
		(output)
		(text "reg_24_o[15..0]" (rect 0 0 76 12)(font "Arial" ))
		(text "reg_24_o[15..0]" (rect 195 491 271 503)(font "Arial" ))
		(line (pt 280 496)(pt 264 496)(line_width 3))
	)
	(port
		(pt 280 512)
		(output)
		(text "reg_25_o[15..0]" (rect 0 0 76 12)(font "Arial" ))
		(text "reg_25_o[15..0]" (rect 195 507 271 519)(font "Arial" ))
		(line (pt 280 512)(pt 264 512)(line_width 3))
	)
	(port
		(pt 280 528)
		(output)
		(text "reg_26_o[15..0]" (rect 0 0 76 12)(font "Arial" ))
		(text "reg_26_o[15..0]" (rect 195 523 271 535)(font "Arial" ))
		(line (pt 280 528)(pt 264 528)(line_width 3))
	)
	(port
		(pt 280 544)
		(output)
		(text "reg_27_o[15..0]" (rect 0 0 76 12)(font "Arial" ))
		(text "reg_27_o[15..0]" (rect 195 539 271 551)(font "Arial" ))
		(line (pt 280 544)(pt 264 544)(line_width 3))
	)
	(drawing
		(rectangle (rect 16 16 264 640))
	)
)
(symbol
	(rect 1352 976 1384 1008)
	(text "GND" (rect 8 16 29 26)(font "Arial" (font_size 6)))
	(text "inst14" (rect 3 21 31 38)(font "Intel Clear" )(invisible))
	(port
		(pt 16 0)
		(output)
		(text "1" (rect 18 0 23 12)(font "Courier New" (bold))(invisible))
		(text "1" (rect 18 0 23 12)(font "Courier New" (bold))(invisible))
		(line (pt 16 8)(pt 16 0))
	)
	(drawing
		(line (pt 8 8)(pt 16 16))
		(line (pt 16 16)(pt 24 8))
		(line (pt 8 8)(pt 24 8))
	)
)
(symbol
	(rect 848 552 1016 856)
	(text "bus_combine" (rect 5 0 69 12)(font "Arial" ))
	(text "inst200" (rect 8 288 43 300)(font "Arial" ))
	(port
		(pt 0 32)
		(input)
		(text "d15_i" (rect 0 0 25 12)(font "Arial" ))
		(text "d15_i" (rect 21 27 46 39)(font "Arial" ))
		(line (pt 0 32)(pt 16 32))
	)
	(port
		(pt 0 48)
		(input)
		(text "d14_i" (rect 0 0 25 12)(font "Arial" ))
		(text "d14_i" (rect 21 43 46 55)(font "Arial" ))
		(line (pt 0 48)(pt 16 48))
	)
	(port
		(pt 0 64)
		(input)
		(text "d13_i" (rect 0 0 25 12)(font "Arial" ))
		(text "d13_i" (rect 21 59 46 71)(font "Arial" ))
		(line (pt 0 64)(pt 16 64))
	)
	(port
		(pt 0 80)
		(input)
		(text "d12_i" (rect 0 0 25 12)(font "Arial" ))
		(text "d12_i" (rect 21 75 46 87)(font "Arial" ))
		(line (pt 0 80)(pt 16 80))
	)
	(port
		(pt 0 96)
		(input)
		(text "d11_i" (rect 0 0 25 12)(font "Arial" ))
		(text "d11_i" (rect 21 91 46 103)(font "Arial" ))
		(line (pt 0 96)(pt 16 96))
	)
	(port
		(pt 0 112)
		(input)
		(text "d10_i" (rect 0 0 25 12)(font "Arial" ))
		(text "d10_i" (rect 21 107 46 119)(font "Arial" ))
		(line (pt 0 112)(pt 16 112))
	)
	(port
		(pt 0 128)
		(input)
		(text "d09_i" (rect 0 0 25 12)(font "Arial" ))
		(text "d09_i" (rect 21 123 46 135)(font "Arial" ))
		(line (pt 0 128)(pt 16 128))
	)
	(port
		(pt 0 144)
		(input)
		(text "d08_i" (rect 0 0 25 12)(font "Arial" ))
		(text "d08_i" (rect 21 139 46 151)(font "Arial" ))
		(line (pt 0 144)(pt 16 144))
	)
	(port
		(pt 0 160)
		(input)
		(text "d07_i" (rect 0 0 25 12)(font "Arial" ))
		(text "d07_i" (rect 21 155 46 167)(font "Arial" ))
		(line (pt 0 160)(pt 16 160))
	)
	(port
		(pt 0 176)
		(input)
		(text "d06_i" (rect 0 0 25 12)(font "Arial" ))
		(text "d06_i" (rect 21 171 46 183)(font "Arial" ))
		(line (pt 0 176)(pt 16 176))
	)
	(port
		(pt 0 192)
		(input)
		(text "d05_i" (rect 0 0 25 12)(font "Arial" ))
		(text "d05_i" (rect 21 187 46 199)(font "Arial" ))
		(line (pt 0 192)(pt 16 192))
	)
	(port
		(pt 0 208)
		(input)
		(text "d04_i" (rect 0 0 25 12)(font "Arial" ))
		(text "d04_i" (rect 21 203 46 215)(font "Arial" ))
		(line (pt 0 208)(pt 16 208))
	)
	(port
		(pt 0 224)
		(input)
		(text "d03_i" (rect 0 0 25 12)(font "Arial" ))
		(text "d03_i" (rect 21 219 46 231)(font "Arial" ))
		(line (pt 0 224)(pt 16 224))
	)
	(port
		(pt 0 240)
		(input)
		(text "d02_i" (rect 0 0 25 12)(font "Arial" ))
		(text "d02_i" (rect 21 235 46 247)(font "Arial" ))
		(line (pt 0 240)(pt 16 240))
	)
	(port
		(pt 0 256)
		(input)
		(text "d01_i" (rect 0 0 25 12)(font "Arial" ))
		(text "d01_i" (rect 21 251 46 263)(font "Arial" ))
		(line (pt 0 256)(pt 16 256))
	)
	(port
		(pt 0 272)
		(input)
		(text "d00_i" (rect 0 0 25 12)(font "Arial" ))
		(text "d00_i" (rect 21 267 46 279)(font "Arial" ))
		(line (pt 0 272)(pt 16 272))
	)
	(port
		(pt 168 32)
		(output)
		(text "reg_o[15..0]" (rect 0 0 59 12)(font "Arial" ))
		(text "reg_o[15..0]" (rect 98 27 157 39)(font "Arial" ))
		(line (pt 168 32)(pt 152 32)(line_width 3))
	)
	(drawing
		(rectangle (rect 16 16 152 288))
	)
)
(symbol
	(rect 856 336 1136 512)
	(text "spi_slave" (rect 5 0 52 12)(font "Arial" ))
	(text "inst122" (rect 8 160 43 172)(font "Arial" ))
	(port
		(pt 0 32)
		(input)
		(text "spi_clk_i" (rect 0 0 42 12)(font "Arial" ))
		(text "spi_clk_i" (rect 21 27 63 39)(font "Arial" ))
		(line (pt 0 32)(pt 16 32))
	)
	(port
		(pt 0 48)
		(input)
		(text "spi_cs_ni" (rect 0 0 46 12)(font "Arial" ))
		(text "spi_cs_ni" (rect 21 43 67 55)(font "Arial" ))
		(line (pt 0 48)(pt 16 48))
	)
	(port
		(pt 0 64)
		(input)
		(text "spi_mosi_i" (rect 0 0 51 12)(font "Arial" ))
		(text "spi_mosi_i" (rect 21 59 72 71)(font "Arial" ))
		(line (pt 0 64)(pt 16 64))
	)
	(port
		(pt 0 80)
		(input)
		(text "mux_data_i[15..0]" (rect 0 0 88 12)(font "Arial" ))
		(text "mux_data_i[15..0]" (rect 21 75 109 87)(font "Arial" ))
		(line (pt 0 80)(pt 16 80)(line_width 3))
	)
	(port
		(pt 0 96)
		(input)
		(text "mux_crc_i[15..0]" (rect 0 0 82 12)(font "Arial" ))
		(text "mux_crc_i[15..0]" (rect 21 91 103 103)(font "Arial" ))
		(line (pt 0 96)(pt 16 96)(line_width 3))
	)
	(port
		(pt 280 32)
		(output)
		(text "spi_miso_o" (rect 0 0 55 12)(font "Arial" ))
		(text "spi_miso_o" (rect 213 27 259 39)(font "Arial" ))
		(line (pt 280 32)(pt 264 32))
	)
	(port
		(pt 280 48)
		(output)
		(text "mux_register_o[5..0]" (rect 0 0 101 12)(font "Arial" ))
		(text "mux_register_o[5..0]" (rect 174 43 259 55)(font "Arial" ))
		(line (pt 280 48)(pt 264 48)(line_width 3))
	)
	(port
		(pt 280 64)
		(output)
		(text "mux_full_address_o[15..0]" (rect 0 0 130 12)(font "Arial" ))
		(text "mux_full_address_o[15..0]" (rect 149 59 259 71)(font "Arial" ))
		(line (pt 280 64)(pt 264 64)(line_width 3))
	)
	(port
		(pt 280 80)
		(output)
		(text "mux_data_o[15..0]" (rect 0 0 92 12)(font "Arial" ))
		(text "mux_data_o[15..0]" (rect 182 75 259 87)(font "Arial" ))
		(line (pt 280 80)(pt 264 80)(line_width 3))
	)
	(port
		(pt 280 96)
		(output)
		(text "mux_full_address_done_o" (rect 0 0 128 12)(font "Arial" ))
		(text "mux_full_address_done_o" (rect 151 91 259 103)(font "Arial" ))
		(line (pt 280 96)(pt 264 96))
	)
	(port
		(pt 280 112)
		(output)
		(text "mux_write_o" (rect 0 0 61 12)(font "Arial" ))
		(text "mux_write_o" (rect 208 107 259 119)(font "Arial" ))
		(line (pt 280 112)(pt 264 112))
	)
	(port
		(pt 280 128)
		(output)
		(text "mux_read_o" (rect 0 0 60 12)(font "Arial" ))
		(text "mux_read_o" (rect 209 123 259 135)(font "Arial" ))
		(line (pt 280 128)(pt 264 128))
	)
	(port
		(pt 280 144)
		(output)
		(text "mux_crc_o[15..0]" (rect 0 0 86 12)(font "Arial" ))
		(text "mux_crc_o[15..0]" (rect 187 139 259 151)(font "Arial" ))
		(line (pt 280 144)(pt 264 144)(line_width 3))
	)
	(drawing
		(rectangle (rect 16 16 264 160))
	)
)
(connector
	(pt 1120 584)
	(pt 1016 584)
	(bus)
)
(connector
	(text "digital_1_filtered" (rect 706 808 787 825)(font "Intel Clear" ))
	(pt 696 824)
	(pt 848 824)
)
(connector
	(text "digital_7_filtered" (rect 706 712 787 729)(font "Intel Clear" ))
	(pt 696 728)
	(pt 848 728)
)
(connector
	(text "digital_6_filtered" (rect 706 728 787 745)(font "Intel Clear" ))
	(pt 696 744)
	(pt 848 744)
)
(connector
	(text "digital_5_filtered" (rect 706 744 787 761)(font "Intel Clear" ))
	(pt 696 760)
	(pt 848 760)
)
(connector
	(text "digital_4_filtered" (rect 706 760 787 777)(font "Intel Clear" ))
	(pt 696 776)
	(pt 848 776)
)
(connector
	(text "digital_3_filtered" (rect 706 776 787 793)(font "Intel Clear" ))
	(pt 696 792)
	(pt 848 792)
)
(connector
	(text "digital_2_filtered" (rect 706 792 787 809)(font "Intel Clear" ))
	(pt 696 808)
	(pt 848 808)
)
(connector
	(pt 848 712)
	(pt 784 712)
)
(connector
	(pt 848 600)
	(pt 784 600)
)
(connector
	(pt 848 616)
	(pt 784 616)
)
(connector
	(pt 784 616)
	(pt 784 600)
)
(connector
	(pt 848 632)
	(pt 784 632)
)
(connector
	(pt 784 632)
	(pt 784 616)
)
(connector
	(pt 848 648)
	(pt 784 648)
)
(connector
	(pt 784 648)
	(pt 784 632)
)
(connector
	(pt 848 664)
	(pt 784 664)
)
(connector
	(pt 784 664)
	(pt 784 648)
)
(connector
	(pt 848 680)
	(pt 784 680)
)
(connector
	(pt 784 680)
	(pt 784 664)
)
(connector
	(pt 848 696)
	(pt 784 696)
)
(connector
	(pt 784 712)
	(pt 784 696)
)
(connector
	(pt 784 696)
	(pt 784 680)
)
(connector
	(pt 728 584)
	(pt 728 592)
)
(connector
	(pt 784 584)
	(pt 784 600)
)
(connector
	(pt 728 584)
	(pt 784 584)
)
(connector
	(text "adc_iso1_an0[15..0]" (rect 1346 528 1440 545)(font "Intel Clear" ))
	(pt 1336 544)
	(pt 1472 544)
	(bus)
)
(connector
	(text "adc_iso2_an0[15..0]" (rect 1346 544 1440 561)(font "Intel Clear" ))
	(pt 1336 560)
	(pt 1472 560)
	(bus)
)
(connector
	(text "adc_iso3_an0[15..0]" (rect 1346 560 1440 577)(font "Intel Clear" ))
	(pt 1336 576)
	(pt 1472 576)
	(bus)
)
(connector
	(text "adc_iso4_an0[15..0]" (rect 1346 576 1440 593)(font "Intel Clear" ))
	(pt 1336 592)
	(pt 1472 592)
	(bus)
)
(connector
	(pt 1120 584)
	(pt 1120 528)
	(bus)
)
(connector
	(text "reset_n" (rect 1394 352 1429 369)(font "Intel Clear" ))
	(pt 1384 368)
	(pt 1472 368)
)
(connector
	(text "clock_20mhz" (rect 1394 336 1456 353)(font "Intel Clear" ))
	(pt 1384 352)
	(pt 1472 352)
)
(connector
	(text "lw_fpga_spi0_sdo" (rect 690 304 776 321)(font "Intel Clear" ))
	(pt 1184 320)
	(pt 680 320)
)
(connector
	(text "spi_slave_data_i[15..0]" (rect 1754 336 1863 353)(font "Intel Clear" ))
	(pt 1752 352)
	(pt 1920 352)
	(bus)
)
(connector
	(text "spi_slave_crc_data_i[15..0]" (rect 1754 352 1882 369)(font "Intel Clear" ))
	(pt 1752 368)
	(pt 1920 368)
	(bus)
)
(connector
	(text "crc_data_in[15..0]" (rect 1762 368 1845 385)(font "Intel Clear" ))
	(pt 2064 384)
	(pt 1752 384)
	(bus)
)
(connector
	(text "crc_clear" (rect 1762 384 1804 401)(font "Intel Clear" ))
	(pt 2064 400)
	(pt 1752 400)
)
(connector
	(text "crc_write" (rect 1762 400 1804 417)(font "Intel Clear" ))
	(pt 2064 416)
	(pt 1752 416)
)
(connector
	(pt 1472 512)
	(pt 1440 512)
	(bus)
)
(connector
	(pt 1440 512)
	(pt 1440 528)
	(bus)
)
(connector
	(text "digital_in[15..0]" (rect 1346 512 1419 529)(font "Intel Clear" ))
	(pt 1472 528)
	(pt 1440 528)
	(bus)
)
(connector
	(pt 1472 608)
	(pt 1368 608)
	(bus)
)
(connector
	(pt 1472 944)
	(pt 1368 944)
	(bus)
)
(connector
	(pt 1368 944)
	(pt 1368 976)
	(bus)
)
(connector
	(pt 1472 928)
	(pt 1368 928)
	(bus)
)
(connector
	(pt 1368 928)
	(pt 1368 944)
	(bus)
)
(connector
	(pt 1472 912)
	(pt 1368 912)
	(bus)
)
(connector
	(pt 1368 912)
	(pt 1368 928)
	(bus)
)
(connector
	(pt 1472 896)
	(pt 1368 896)
	(bus)
)
(connector
	(pt 1368 896)
	(pt 1368 912)
	(bus)
)
(connector
	(pt 1472 880)
	(pt 1368 880)
	(bus)
)
(connector
	(pt 1472 864)
	(pt 1368 864)
	(bus)
)
(connector
	(pt 1472 848)
	(pt 1368 848)
	(bus)
)
(connector
	(pt 1472 832)
	(pt 1368 832)
	(bus)
)
(connector
	(pt 1368 880)
	(pt 1368 896)
	(bus)
)
(connector
	(pt 1368 864)
	(pt 1368 880)
	(bus)
)
(connector
	(pt 1368 848)
	(pt 1368 864)
	(bus)
)
(connector
	(pt 1368 832)
	(pt 1368 848)
	(bus)
)
(connector
	(pt 1472 816)
	(pt 1368 816)
	(bus)
)
(connector
	(pt 1472 800)
	(pt 1368 800)
	(bus)
)
(connector
	(pt 1472 784)
	(pt 1368 784)
	(bus)
)
(connector
	(pt 1472 768)
	(pt 1368 768)
	(bus)
)
(connector
	(pt 1368 816)
	(pt 1368 832)
	(bus)
)
(connector
	(pt 1368 800)
	(pt 1368 816)
	(bus)
)
(connector
	(pt 1368 784)
	(pt 1368 800)
	(bus)
)
(connector
	(pt 1368 768)
	(pt 1368 784)
	(bus)
)
(connector
	(pt 1472 752)
	(pt 1368 752)
	(bus)
)
(connector
	(pt 1472 736)
	(pt 1368 736)
	(bus)
)
(connector
	(pt 1472 720)
	(pt 1368 720)
	(bus)
)
(connector
	(pt 1472 704)
	(pt 1368 704)
	(bus)
)
(connector
	(pt 1368 752)
	(pt 1368 768)
	(bus)
)
(connector
	(pt 1368 736)
	(pt 1368 752)
	(bus)
)
(connector
	(pt 1368 720)
	(pt 1368 736)
	(bus)
)
(connector
	(pt 1368 704)
	(pt 1368 720)
	(bus)
)
(connector
	(pt 1472 688)
	(pt 1368 688)
	(bus)
)
(connector
	(pt 1472 672)
	(pt 1368 672)
	(bus)
)
(connector
	(pt 1472 656)
	(pt 1368 656)
	(bus)
)
(connector
	(pt 1472 640)
	(pt 1368 640)
	(bus)
)
(connector
	(pt 1368 688)
	(pt 1368 704)
	(bus)
)
(connector
	(pt 1368 672)
	(pt 1368 688)
	(bus)
)
(connector
	(pt 1368 656)
	(pt 1368 672)
	(bus)
)
(connector
	(pt 1368 640)
	(pt 1368 656)
	(bus)
)
(connector
	(pt 1472 624)
	(pt 1368 624)
	(bus)
)
(connector
	(pt 1368 608)
	(pt 1368 624)
	(bus)
)
(connector
	(pt 1368 624)
	(pt 1368 640)
	(bus)
)
(connector
	(pt 784 584)
	(pt 848 584)
)
(connector
	(text "spi_slave_data_i[15..0]" (rect 722 400 831 417)(font "Intel Clear" ))
	(pt 856 416)
	(pt 720 416)
	(bus)
)
(connector
	(text "spi_slave_crc_data_i[15..0]" (rect 722 416 850 433)(font "Intel Clear" ))
	(pt 856 432)
	(pt 720 432)
	(bus)
)
(connector
	(text "lw_fpga_spi0_clk" (rect 658 352 741 369)(font "Intel Clear" ))
	(pt 672 368)
	(pt 856 368)
)
(connector
	(text "lw_fpga_spi0_cs0" (rect 658 368 742 385)(font "Intel Clear" ))
	(pt 672 384)
	(pt 856 384)
)
(connector
	(text "lw_fpga_spi0_sdi" (rect 658 384 740 401)(font "Intel Clear" ))
	(pt 672 400)
	(pt 856 400)
)
(connector
	(pt 1184 320)
	(pt 1184 368)
)
(connector
	(pt 1136 368)
	(pt 1184 368)
)
(connector
	(text "mux_address[5..0]" (rect 1146 368 1232 385)(font "Intel Clear" ))
	(pt 1136 384)
	(pt 1472 384)
	(bus)
)
(connector
	(text "mux_full_address[15..0]" (rect 1146 384 1260 401)(font "Intel Clear" ))
	(pt 1136 400)
	(pt 1472 400)
	(bus)
)
(connector
	(text "mux_data[15..0]" (rect 1146 400 1222 417)(font "Intel Clear" ))
	(pt 1136 416)
	(pt 1472 416)
	(bus)
)
(connector
	(text "mux_full_address_done" (rect 1146 416 1260 433)(font "Intel Clear" ))
	(pt 1136 432)
	(pt 1472 432)
)
(connector
	(text "mux_write" (rect 1146 432 1195 449)(font "Intel Clear" ))
	(pt 1136 448)
	(pt 1472 448)
)
(connector
	(text "mux_read" (rect 1146 448 1193 465)(font "Intel Clear" ))
	(pt 1136 464)
	(pt 1472 464)
)
(connector
	(text "mux_crc_data[15..0]" (rect 1146 464 1241 481)(font "Intel Clear" ))
	(pt 1136 480)
	(pt 1472 480)
	(bus)
)
(connector
	(text "crc_data_out[15..0]" (rect 1338 480 1428 497)(font "Intel Clear" ))
	(pt 1312 496)
	(pt 1472 496)
	(bus)
)
(connector
	(pt 1312 496)
	(pt 1312 528)
	(bus)
)
(connector
	(pt 1440 528)
	(pt 1312 528)
	(bus)
)
(connector
	(pt 1312 528)
	(pt 1120 528)
	(bus)
)
(junction (pt 784 600))
(junction (pt 784 616))
(junction (pt 784 632))
(junction (pt 784 648))
(junction (pt 784 664))
(junction (pt 784 680))
(junction (pt 784 696))
(junction (pt 784 584))
(junction (pt 1440 528))
(junction (pt 1368 944))
(junction (pt 1368 928))
(junction (pt 1368 912))
(junction (pt 1368 896))
(junction (pt 1368 880))
(junction (pt 1368 864))
(junction (pt 1368 848))
(junction (pt 1368 832))
(junction (pt 1368 816))
(junction (pt 1368 800))
(junction (pt 1368 784))
(junction (pt 1368 768))
(junction (pt 1368 752))
(junction (pt 1368 736))
(junction (pt 1368 720))
(junction (pt 1368 704))
(junction (pt 1368 688))
(junction (pt 1368 672))
(junction (pt 1368 656))
(junction (pt 1368 640))
(junction (pt 1368 624))
(junction (pt 1312 528))
